{
  "users": [
    {
      "id": "cc857bc7-42fb-448e-b8ad-4c0b69654e78",
      "username": "Florian",
      "email": "flo@agnet.at",
      "token": "1234",
      "password": "1234",
      "phone": "+49-991-2429058",
      "firstName": "Florian",
      "secondName": "Mold",
      "gender": "männlich",
      "birthdate": "2022-01-01T22:12:34.812Z",
      "salutation_id": "Herr",
      "address_id": "98c8acf5-763c-4525-a722-4e7b538ac524",
      "title_id": "BSc",
      "changedAt": 1672042607713,
      "createdAt": 1641974033396,
      "deletedAt": null
    },
    {
      "id": "85ca21b0-bd55-49ed-9882-951d63e8181f",
      "username": "Mathias",
      "email": "mat@agnet.at",
      "token": "12345",
      "password": "1234",
      "phone": "+49-229-4579551",
      "firstName": "Mathias",
      "secondName": "Riedl",
      "gender": "männlich",
      "birthdate": "2022-04-03T04:00:47.204Z",
      "salutation_id": "Herr",
      "address_id": "c3b442ca-18d7-47a2-ba35-ba0d3cc979e8",
      "title_id": "M.E.S.",
      "changedAt": 1672033069804,
      "createdAt": 1651902955666,
      "deletedAt": null
    }
  ]
}
